Take-home Exercise 1 – ISSS608-CourseWork
…
pacman::p_load(ggplot2,dplyr,DT,crosstalk,patchwork,plotlyhaven,SmartEDA,tidyverse,tidymodels,ggdist,ggridges, ggthemes,colorspace,scales,ggiraph)

Importing Data

ship_original <- read_csv("data/Ship_Performance_Dataset.csv")

Prepare data

Select variable and filtering data

ship = ship_original %>% filter(Ship_Type != "None")

ship

# A tibble: 2,600 × 18
   Date       Ship_Type      Route_Type   Engine_Type         Maintenance_Status
   <date>     <chr>          <chr>        <chr>               <chr>             
 1 2023-06-04 Container Ship None         Heavy Fuel Oil (HF… Critical          
 2 2023-06-11 Fish Carrier   Short-haul   Steam Turbine       Good              
 3 2023-06-18 Container Ship Long-haul    Diesel              Fair              
 4 2023-06-25 Bulk Carrier   Transoceanic Steam Turbine       Fair              
 5 2023-07-02 Fish Carrier   Transoceanic Diesel              Fair              
 6 2023-07-09 Fish Carrier   Long-haul    Heavy Fuel Oil (HF… Fair              
 7 2023-07-16 Fish Carrier   Transoceanic Heavy Fuel Oil (HF… Critical          
 8 2023-07-23 Container Ship Short-haul   Diesel              Critical          
 9 2023-08-06 Container Ship Long-haul    Diesel              Fair              
10 2023-08-13 Fish Carrier   Short-haul   Steam Turbine       Fair              
# ℹ 2,590 more rows
# ℹ 13 more variables: Speed_Over_Ground_knots <dbl>, Engine_Power_kW <dbl>,
#   Distance_Traveled_nm <dbl>, Draft_meters <dbl>, Weather_Condition <chr>,
#   Cargo_Weight_tons <dbl>, Operational_Cost_USD <dbl>,
#   Revenue_per_Voyage_USD <dbl>, Turnaround_Time_hours <dbl>,
#   Efficiency_nm_per_kWh <dbl>, Seasonal_Impact_Score <dbl>,
#   Weekly_Voyage_Count <dbl>, Average_Load_Percentage <dbl>
…
